<svg width="51" height="43" viewBox="0 0 51 43" fill="none" xmlns="http://www.w3.org/2000/svg">
<path d="M47.2373 21.6546H3.76274C3.2781 21.6796 2.79335 21.6073 2.33804 21.4421C1.88272 21.2769 1.46636 21.0222 1.11433 20.6935C0.762291 20.3649 0.481925 19.9692 0.290348 19.5306C0.0987701 19.0919 0 18.6195 0 18.1421C0 17.6647 0.0987701 17.1922 0.290348 16.7536C0.481925 16.3149 0.762291 15.9193 1.11433 15.5906C1.46636 15.262 1.88272 15.0073 2.33804 14.8421C2.79335 14.6769 3.2781 14.6046 3.76274 14.6296H47.2373C47.7219 14.6046 48.2066 14.6769 48.662 14.8421C49.1173 15.0073 49.5336 15.262 49.8857 15.5906C50.2377 15.9193 50.518 16.3149 50.7096 16.7536C50.9012 17.1922 51 17.6647 51 18.1421C51 18.6195 50.9012 19.0919 50.7096 19.5306C50.518 19.9692 50.2377 20.3649 49.8857 20.6935C49.5336 21.0222 49.1173 21.2769 48.662 21.4421C48.2066 21.6073 47.7219 21.6796 47.2373 21.6546ZM3.76274 16.137C3.48318 16.1179 3.20261 16.1556 2.93849 16.2477C2.67436 16.3398 2.43233 16.4844 2.22743 16.6725C2.02252 16.8605 1.85913 17.088 1.74742 17.3409C1.63571 17.5937 1.57806 17.8664 1.57806 18.1421C1.57806 18.4178 1.63571 18.6905 1.74742 18.9433C1.85913 19.1962 2.02252 19.4237 2.22743 19.6117C2.43233 19.7998 2.67436 19.9444 2.93849 20.0365C3.20261 20.1286 3.48318 20.1663 3.76274 20.1472H47.2373C47.7534 20.1119 48.2367 19.8853 48.5896 19.5132C48.9425 19.141 49.1388 18.651 49.1388 18.1421C49.1388 17.6331 48.9425 17.1431 48.5896 16.771C48.2367 16.3989 47.7534 16.1723 47.2373 16.137H3.76274Z" fill="white"/>
<path d="M47.0505 43H3.94926C3.74606 43 3.55119 42.9206 3.40751 42.7792C3.26382 42.6379 3.18311 42.4462 3.18311 42.2463V20.9007C3.18311 20.7008 3.26382 20.5091 3.40751 20.3677C3.55119 20.2264 3.74606 20.147 3.94926 20.147H47.0505C47.2537 20.147 47.4486 20.2264 47.5923 20.3677C47.736 20.5091 47.8167 20.7008 47.8167 20.9007V42.2463C47.8167 42.4462 47.736 42.6379 47.5923 42.7792C47.4486 42.9206 47.2537 43 47.0505 43ZM4.71542 41.4829H46.2746V21.6544H4.71542V41.4829Z" fill="white"/>
<path d="M25.5 8.15517C24.6828 8.14374 23.8872 7.8949 23.2134 7.43993C22.5395 6.98496 22.0174 6.34418 21.7127 5.59813C21.408 4.85207 21.3343 4.03405 21.5008 3.2469C21.6673 2.45974 22.0667 1.73858 22.6487 1.17408C23.2306 0.609573 23.9693 0.226921 24.7717 0.0742202C25.5741 -0.0784801 26.4045 0.00558546 27.1585 0.315854C27.9125 0.626123 28.5564 1.14875 29.0094 1.81802C29.4623 2.4873 29.704 3.27336 29.704 4.07738C29.6937 5.16577 29.2455 6.20582 28.4577 6.97001C27.6698 7.7342 26.6064 8.16033 25.5 8.15517ZM25.5 1.50702C24.9854 1.51653 24.4852 1.67534 24.062 1.96349C23.6389 2.25165 23.3116 2.65633 23.1214 3.12676C22.9311 3.59719 22.8863 4.11242 22.9926 4.60779C23.0989 5.10317 23.3516 5.55663 23.7189 5.91129C24.0861 6.26594 24.5517 6.50599 25.0572 6.60131C25.5626 6.69664 26.0854 6.643 26.56 6.44711C27.0346 6.25123 27.4397 5.92183 27.7247 5.50025C28.0097 5.07866 28.1618 4.58367 28.1619 4.07738C28.1541 3.38967 27.8696 2.73301 27.3707 2.25124C26.8718 1.76947 26.1991 1.50186 25.5 1.50702Z" fill="white"/>
<path d="M33.0044 16.1368H18.0251C17.8219 16.1368 17.627 16.0574 17.4833 15.916C17.3396 15.7747 17.2589 15.5829 17.2589 15.383V11.8367C17.2615 11.3372 17.4176 10.8502 17.7069 10.4397C17.9962 10.0292 18.405 9.71448 18.8796 9.53693L21.8853 8.40636C22.0715 8.35562 22.2703 8.37506 22.4427 8.46086C22.6151 8.54666 22.7488 8.69266 22.8176 8.87029C22.8864 9.04792 22.8853 9.2444 22.8146 9.42131C22.7439 9.59821 22.6087 9.74281 22.4354 9.82682L19.4297 10.8704C19.2466 10.9399 19.0889 11.0617 18.9769 11.2202C18.8649 11.3786 18.8036 11.5664 18.8011 11.7594V14.5907H32.199V11.8367C32.1964 11.6437 32.1352 11.4559 32.0231 11.2974C31.9111 11.139 31.7534 11.0172 31.5704 10.9477L28.5548 9.82682C28.3815 9.74281 28.2463 9.59821 28.1756 9.42131C28.1049 9.2444 28.1038 9.04792 28.1726 8.87029C28.2414 8.69266 28.3751 8.54666 28.5475 8.46086C28.7199 8.37506 28.9187 8.35562 29.1049 8.40636L32.1106 9.53693C32.5852 9.71448 32.994 10.0292 33.2833 10.4397C33.5726 10.8502 33.7288 11.3372 33.7313 11.8367V15.4217C33.7218 15.6083 33.6422 15.7848 33.5079 15.9169C33.3735 16.0491 33.1941 16.1274 33.0044 16.1368Z" fill="white"/>
<path d="M27.5728 16.1369C27.3949 16.1361 27.2226 16.0752 27.0849 15.9644C26.9472 15.8535 26.8525 15.6995 26.8164 15.5282L25.8342 10.6193H25.1466L24.1643 15.4509C24.1067 15.6304 23.9836 15.7826 23.8188 15.8783C23.6539 15.974 23.4589 16.0064 23.2713 15.9692C23.0837 15.932 22.9166 15.828 22.8022 15.677C22.6879 15.526 22.6342 15.3388 22.6517 15.1513L23.7813 9.72069C23.8192 9.55108 23.9149 9.3993 24.0524 9.29038C24.1899 9.18145 24.3611 9.12192 24.5376 9.12159H26.5021C26.6793 9.12095 26.8511 9.18154 26.9876 9.2928C27.124 9.40406 27.2164 9.55892 27.2486 9.73035L28.3389 15.2479C28.3765 15.4451 28.3337 15.6489 28.2197 15.8153C28.1058 15.9816 27.9298 16.0972 27.7299 16.1369H27.5728Z" fill="white"/>
<path d="M38.9568 8.1553C38.1392 8.14576 37.3427 7.89852 36.6675 7.4447C35.9923 6.99087 35.4687 6.35073 35.1625 5.60482C34.8562 4.85892 34.7811 4.04057 34.9466 3.25276C35.112 2.46496 35.5106 1.74289 36.0922 1.17743C36.6739 0.61196 37.4125 0.228359 38.2152 0.0748933C39.0179 -0.0785728 39.8488 0.00495726 40.6034 0.314964C41.3579 0.624972 42.0024 1.14761 42.4558 1.81711C42.9091 2.48661 43.151 3.27307 43.1511 4.07751C43.1407 5.16422 42.6939 6.20281 41.9082 6.96672C41.1225 7.73064 40.0615 8.1579 38.9568 8.1553ZM38.9568 1.50714C38.4423 1.51666 37.9421 1.67546 37.5189 1.96362C37.0957 2.25178 36.7685 2.65646 36.5782 3.12689C36.388 3.59732 36.3432 4.11254 36.4495 4.60792C36.5558 5.1033 36.8084 5.55676 37.1757 5.91142C37.543 6.26607 38.0086 6.50611 38.514 6.60144C39.0195 6.69676 39.5423 6.64312 40.0169 6.44724C40.4914 6.25136 40.8966 5.92196 41.1816 5.50037C41.4666 5.07879 41.6187 4.5838 41.6187 4.07751C41.611 3.38979 41.3265 2.73314 40.8275 2.25137C40.3286 1.7696 39.6559 1.50199 38.9568 1.50714Z" fill="white"/>
<path d="M34.38 10.3004C34.2001 10.3016 34.0256 10.2405 33.8869 10.1278C33.7482 10.0151 33.6543 9.85807 33.6215 9.68411C33.5887 9.51014 33.6192 9.33036 33.7075 9.17627C33.7959 9.02217 33.9366 8.90359 34.1049 8.84127L35.3426 8.36778C35.5288 8.31705 35.7275 8.33648 35.9 8.42228C36.0724 8.50808 36.2061 8.65408 36.2748 8.83171C36.3436 9.00934 36.3426 9.20582 36.2719 9.38273C36.2012 9.55963 36.066 9.70423 35.8926 9.78824L34.655 10.2521C34.5661 10.281 34.4735 10.2973 34.38 10.3004Z" fill="white"/>
<path d="M46.4222 16.1368H34.6352C34.432 16.1368 34.2371 16.0574 34.0934 15.916C33.9497 15.7747 33.869 15.5829 33.869 15.383C33.869 15.1831 33.9497 14.9914 34.0934 14.8501C34.2371 14.7087 34.432 14.6293 34.6352 14.6293H45.6954V11.8367C45.692 11.6426 45.6294 11.454 45.5155 11.2954C45.4016 11.1368 45.2418 11.0157 45.0569 10.9477L42.0512 9.82682C41.8779 9.74281 41.7426 9.59821 41.672 9.42131C41.6013 9.2444 41.6002 9.04792 41.669 8.87029C41.7378 8.69266 41.8714 8.54666 42.0439 8.46086C42.2163 8.37506 42.415 8.35562 42.6012 8.40636L45.6069 9.53693C46.0815 9.71448 46.4904 10.0292 46.7797 10.4397C47.0689 10.8502 47.2251 11.3372 47.2277 11.8367V15.4217C47.2226 15.5207 47.1978 15.6178 47.1546 15.7074C47.1113 15.7969 47.0506 15.8772 46.9758 15.9436C46.9009 16.0101 46.8135 16.0613 46.7185 16.0945C46.6235 16.1276 46.5229 16.142 46.4222 16.1368Z" fill="white"/>
<path d="M41.0295 16.1368C40.8511 16.1378 40.6779 16.0776 40.5398 15.9664C40.4017 15.8553 40.3074 15.7002 40.2731 15.528L39.2909 10.6192H38.5738L37.5916 15.4507C37.5339 15.6302 37.4108 15.7825 37.246 15.8782C37.0811 15.9738 36.8861 16.0062 36.6985 15.9691C36.5109 15.9319 36.3439 15.8278 36.2295 15.6769C36.1151 15.5259 36.0615 15.3387 36.0789 15.1512L37.2085 9.72054C37.2448 9.5501 37.34 9.39728 37.4779 9.28806C37.6157 9.17884 37.7878 9.11997 37.9648 9.12144H39.9293C40.1082 9.11851 40.2824 9.17806 40.4209 9.28952C40.5594 9.40098 40.6532 9.55712 40.6857 9.73021L41.776 15.2478C41.8136 15.445 41.7708 15.6488 41.6568 15.8151C41.5428 15.9815 41.3669 16.097 41.167 16.1368H41.0295Z" fill="white"/>
<path d="M12.043 8.15517C11.2258 8.14374 10.4302 7.8949 9.75634 7.43993C9.08248 6.98496 8.56037 6.34418 8.25565 5.59813C7.95094 4.85207 7.87722 4.03405 8.04375 3.2469C8.21029 2.45974 8.60964 1.73858 9.19162 1.17408C9.77361 0.609573 10.5123 0.226921 11.3147 0.0742202C12.1171 -0.0784801 12.9475 0.00558546 13.7015 0.315854C14.4555 0.626123 15.0994 1.14875 15.5523 1.81802C16.0052 2.4873 16.2469 3.27336 16.247 4.07738C16.2366 5.16577 15.7885 6.20582 15.0006 6.97001C14.2128 7.7342 13.1494 8.16033 12.043 8.15517ZM12.043 1.50702C11.5284 1.51653 11.0282 1.67534 10.605 1.96349C10.1818 2.25165 9.85459 2.65633 9.66435 3.12676C9.4741 3.59719 9.42933 4.11242 9.53563 4.60779C9.64192 5.10317 9.89454 5.55663 10.2618 5.91129C10.6291 6.26594 11.0947 6.50599 11.6001 6.60131C12.1056 6.69664 12.6284 6.643 13.103 6.44711C13.5775 6.25123 13.9827 5.92183 14.2677 5.50025C14.5527 5.07866 14.7048 4.58367 14.7049 4.07738C14.7023 3.73647 14.6313 3.39942 14.4961 3.08556C14.3608 2.77169 14.1638 2.4872 13.9165 2.24839C13.6692 2.00958 13.3764 1.82116 13.0549 1.69393C12.7334 1.56671 12.3895 1.50319 12.043 1.50702Z" fill="white"/>
<path d="M16.6206 10.3005C16.5294 10.3143 16.4367 10.3143 16.3455 10.3005L15.1079 9.83671C15.0131 9.80181 14.9262 9.74889 14.8522 9.68095C14.7781 9.61302 14.7185 9.53141 14.6765 9.44079C14.6345 9.35016 14.6112 9.25229 14.6076 9.15277C14.6041 9.05324 14.6206 8.95401 14.6561 8.86074C14.6915 8.76747 14.7453 8.68199 14.8144 8.60918C14.8834 8.53636 14.9664 8.47764 15.0585 8.43636C15.1506 8.39509 15.2501 8.37207 15.3513 8.36862C15.4525 8.36517 15.5533 8.38135 15.6481 8.41624L16.8956 8.88973C17.0639 8.95205 17.2046 9.07064 17.293 9.22473C17.3814 9.37883 17.4118 9.5586 17.379 9.73257C17.3463 9.90654 17.2523 10.0636 17.1136 10.1763C16.975 10.289 16.8004 10.35 16.6206 10.3488V10.3005Z" fill="white"/>
<path d="M16.3947 16.1369H4.60765C4.50622 16.1382 4.40552 16.1196 4.31143 16.0823C4.21734 16.045 4.13173 15.9897 4.05954 15.9196C3.98735 15.8495 3.93004 15.7659 3.89093 15.6739C3.85181 15.5818 3.83166 15.483 3.83167 15.3832V11.8368C3.83689 11.338 3.99417 10.8521 4.2831 10.4421C4.57204 10.0321 4.97936 9.71686 5.45241 9.53706L8.4679 8.40648C8.65938 8.336 8.87148 8.34325 9.05753 8.42661C9.24358 8.50997 9.38835 8.66262 9.45999 8.85098C9.53163 9.03935 9.52428 9.24799 9.43955 9.43102C9.35481 9.61405 9.19964 9.75647 9.00816 9.82694L5.973 10.8705C5.78995 10.94 5.63223 11.0618 5.52018 11.2203C5.40814 11.3787 5.34689 11.5665 5.34434 11.7595V14.5908H16.3947C16.5979 14.5908 16.7928 14.6702 16.9365 14.8116C17.0801 14.9529 17.1609 15.1446 17.1609 15.3445C17.1609 15.5444 17.0801 15.7361 16.9365 15.8775C16.7928 16.0188 16.5979 16.0982 16.3947 16.0982V16.1369Z" fill="white"/>
<path d="M9.97078 16.1369H9.82345C9.72386 16.1184 9.629 16.0807 9.54435 16.0258C9.45969 15.971 9.38693 15.9002 9.33029 15.8175C9.27364 15.7348 9.23422 15.6419 9.21434 15.5441C9.19446 15.4464 9.19451 15.3457 9.21446 15.2479L10.2949 9.73035C10.331 9.55896 10.4258 9.40496 10.5635 9.29413C10.7012 9.1833 10.8734 9.12239 11.0513 9.12158H13.0158C13.1923 9.12191 13.3635 9.18145 13.501 9.29037C13.6385 9.39929 13.7341 9.55108 13.7721 9.72068L14.8919 15.1513C14.9119 15.2484 14.9123 15.3484 14.893 15.4456C14.8737 15.5428 14.8351 15.6353 14.7794 15.7179C14.7238 15.8004 14.6522 15.8714 14.5687 15.9267C14.4852 15.982 14.3914 16.0206 14.2927 16.0403C14.194 16.06 14.0924 16.0603 13.9936 16.0413C13.8947 16.0224 13.8007 15.9844 13.7168 15.9297C13.6329 15.8749 13.5607 15.8045 13.5045 15.7223C13.4483 15.6402 13.409 15.5479 13.389 15.4508L12.4068 10.6193H11.6996L10.7173 15.5282C10.6833 15.6987 10.5904 15.8525 10.4544 15.9635C10.3183 16.0744 10.1475 16.1357 9.97078 16.1369Z" fill="white"/>
<path d="M41.0587 27.7325H9.91142C9.70822 27.7325 9.51335 27.6531 9.36966 27.5118C9.22598 27.3704 9.14526 27.1787 9.14526 26.9788C9.14526 26.7789 9.22598 26.5872 9.36966 26.4459C9.51335 26.3045 9.70822 26.2251 9.91142 26.2251H41.0587C41.2619 26.2251 41.4568 26.3045 41.6005 26.4459C41.7441 26.5872 41.8249 26.7789 41.8249 26.9788C41.8249 27.1787 41.7441 27.3704 41.6005 27.5118C41.4568 27.6531 41.2619 27.7325 41.0587 27.7325Z" fill="white"/>
<path d="M41.1178 32.3322H9.97055C9.86198 32.3443 9.75206 32.3337 9.64795 32.3011C9.54384 32.2685 9.44793 32.2146 9.36644 32.143C9.28496 32.0714 9.21977 31.9837 9.17514 31.8855C9.1305 31.7874 9.10742 31.6812 9.10742 31.5737C9.10742 31.4662 9.1305 31.3599 9.17514 31.2618C9.21977 31.1637 9.28496 31.076 9.36644 31.0044C9.44793 30.9328 9.54384 30.8789 9.64795 30.8463C9.75206 30.8137 9.86198 30.8031 9.97055 30.8151H41.1178C41.3073 30.8362 41.4823 30.9252 41.6094 31.0651C41.7364 31.205 41.8067 31.3861 41.8067 31.5737C41.8067 31.7613 41.7364 31.9423 41.6094 32.0823C41.4823 32.2222 41.3073 32.3112 41.1178 32.3322Z" fill="white"/>
<path d="M41.1768 36.9609H10.0295C9.92094 36.973 9.81102 36.9624 9.70691 36.9297C9.6028 36.8971 9.50689 36.8433 9.4254 36.7716C9.34392 36.7 9.27873 36.6123 9.2341 36.5142C9.18946 36.4161 9.16638 36.3098 9.16638 36.2023C9.16638 36.0949 9.18946 35.9886 9.2341 35.8905C9.27873 35.7924 9.34392 35.7046 9.4254 35.633C9.50689 35.5614 9.6028 35.5076 9.70691 35.475C9.81102 35.4423 9.92094 35.4317 10.0295 35.4438H41.1768C41.3663 35.4649 41.5413 35.5539 41.6683 35.6938C41.7954 35.8337 41.8656 36.0147 41.8656 36.2023C41.8656 36.39 41.7954 36.571 41.6683 36.7109C41.5413 36.8508 41.3663 36.9398 41.1768 36.9609Z" fill="white"/>
</svg>
